"","name","force_level","ctrl","phase","cutoff","feedback","percent_err","nb_points","num_essai"
"sujet1_pos_ent_0.2_pc_0","sujet1",22,"pos","ent","0.2","pc",6.83690215286215,3001,0
"sujet1_pos_ent_0.2_pc_2","sujet1",22,"pos","ent","0.2","pc",23.1493941528833,3001,2
"sujet1_pos_ent_0.2_pe_1","sujet1",22,"pos","ent","0.2","pe",1137.40557502589,3000,1
"sujet1_pos_ent_0.2_pe_3","sujet1",22,"pos","ent","0.2","pe",8.20702949301503,2996,3
"sujet1_pos_ent_0.3_pc_4","sujet1",22,"pos","ent","0.3","pc",4.7357839590048,3001,4
"sujet1_pos_ent_0.3_pc_6","sujet1",22,"pos","ent","0.3","pc",4.46731649831743,3001,6
"sujet1_pos_ent_0.3_pe_5","sujet1",22,"pos","ent","0.3","pe",14.3250820985718,3001,5
"sujet1_pos_ent_0.3_pe_7","sujet1",22,"pos","ent","0.3","pe",16.339382194047,2996,7
"sujet1_pos_ent_0.4_pc_10","sujet1",22,"pos","ent","0.4","pc",10.3718410305119,3001,10
"sujet1_pos_ent_0.4_pc_8","sujet1",22,"pos","ent","0.4","pc",6.24273560489907,3001,8
"sujet1_pos_ent_0.4_pe_11","sujet1",22,"pos","ent","0.4","pe",18.9215046828127,3000,11
"sujet1_pos_ent_0.4_pe_9","sujet1",22,"pos","ent","0.4","pe",27.1357757270862,3001,9
"sujet1_pos_test_0.4_pc_12","sujet1",22,"pos","test","0.4","pc",6.23569652796686,7501,12
"sujet1_pos_test_0.4_pc_16","sujet1",22,"pos","test","0.4","pc",5.27714375792206,7500,16
"sujet1_pos_test_0.4_pe_13","sujet1",22,"pos","test","0.4","pe",32.2080402519763,7015,13
"sujet1_pos_test_0.4_pe_17","sujet1",22,"pos","test","0.4","pe",64.4031858482729,7016,17
"sujet1_pos_test_0.6_pc_14","sujet1",22,"pos","test","0.6","pc",14.7122952308701,7499,14
"sujet1_pos_test_0.6_pc_18","sujet1",22,"pos","test","0.6","pc",17.9014847504467,7501,18
"sujet1_pos_test_0.6_pe_15","sujet1",22,"pos","test","0.6","pe",73.7920470572302,7204,15
"sujet1_pos_test_0.6_pe_19","sujet1",22,"pos","test","0.6","pe",63.8208251104157,7353,19
"sujet10_vit_ent_0.2_pc_1","sujet10",19.1438272600149,"vit","ent","0.2","pc",20.0778707663048,3001,1
"sujet10_vit_ent_0.2_pc_3","sujet10",19.1438272600149,"vit","ent","0.2","pc",43.8650459390037,2987,3
"sujet10_vit_ent_0.2_pe_0","sujet10",19.1438272600149,"vit","ent","0.2","pe",908.002728089237,3000,0
"sujet10_vit_ent_0.2_pe_2","sujet10",19.1438272600149,"vit","ent","0.2","pe",48.275715259752,2995,2
"sujet10_vit_ent_0.3_pc_5","sujet10",19.1438272600149,"vit","ent","0.3","pc",67.2451846543112,3001,5
"sujet10_vit_ent_0.3_pc_7","sujet10",19.1438272600149,"vit","ent","0.3","pc",77.1616293690193,2998,7
"sujet10_vit_ent_0.3_pe_4","sujet10",19.1438272600149,"vit","ent","0.3","pe",250.367401397036,3001,4
"sujet10_vit_ent_0.3_pe_6","sujet10",19.1438272600149,"vit","ent","0.3","pe",126.628540022048,2999,6
"sujet10_vit_ent_0.4_pc_11","sujet10",19.1438272600149,"vit","ent","0.4","pc",106.773248547145,2998,11
"sujet10_vit_ent_0.4_pc_9","sujet10",19.1438272600149,"vit","ent","0.4","pc",79.6879019678306,3001,9
"sujet10_vit_ent_0.4_pe_10","sujet10",19.1438272600149,"vit","ent","0.4","pe",140.862635513558,3001,10
"sujet10_vit_ent_0.4_pe_8","sujet10",19.1438272600149,"vit","ent","0.4","pe",190.166450162038,3001,8
"sujet10_vit_test_0.4_pc_13","sujet10",19.1438272600149,"vit","test","0.4","pc",69.5090543496763,7011,13
"sujet10_vit_test_0.4_pc_17","sujet10",19.1438272600149,"vit","test","0.4","pc",107.583850636944,7323,17
"sujet10_vit_test_0.4_pe_12","sujet10",19.1438272600149,"vit","test","0.4","pe",129.082379695871,7501,12
"sujet10_vit_test_0.4_pe_16","sujet10",19.1438272600149,"vit","test","0.4","pe",109.907036483215,7501,16
"sujet10_vit_test_0.6_pc_15","sujet10",19.1438272600149,"vit","test","0.6","pc",157.213074948608,6832,15
"sujet10_vit_test_0.6_pc_19","sujet10",19.1438272600149,"vit","test","0.6","pc",137.119278884144,7209,19
"sujet10_vit_test_0.6_pe_14","sujet10",19.1438272600149,"vit","test","0.6","pe",295.587737909754,7501,14
"sujet10_vit_test_0.6_pe_18","sujet10",19.1438272600149,"vit","test","0.6","pe",262.765485179716,7500,18
"sujet11_vit_ent_0.2_pc_0","sujet11",29.4457076783303,"vit","ent","0.2","pc",6.93667476904503,3001,0
"sujet11_vit_ent_0.2_pc_2","sujet11",29.4457076783303,"vit","ent","0.2","pc",7.49369490203933,2999,2
"sujet11_vit_ent_0.2_pe_1","sujet11",29.4457076783303,"vit","ent","0.2","pe",6.2856980175299,3000,1
"sujet11_vit_ent_0.2_pe_3","sujet11",29.4457076783303,"vit","ent","0.2","pe",7.14593268888269,2999,3
"sujet11_vit_ent_0.3_pc_4","sujet11",29.4457076783303,"vit","ent","0.3","pc",16.7586297814637,3001,4
"sujet11_vit_ent_0.3_pc_6","sujet11",29.4457076783303,"vit","ent","0.3","pc",16.9505455062183,3000,6
"sujet11_vit_ent_0.3_pe_5","sujet11",29.4457076783303,"vit","ent","0.3","pe",181.680247877167,3001,5
"sujet11_vit_ent_0.3_pe_7","sujet11",29.4457076783303,"vit","ent","0.3","pe",23.9003864633203,2997,7
"sujet11_vit_ent_0.4_pc_10","sujet11",29.4457076783303,"vit","ent","0.4","pc",34.907526824937,3001,10
"sujet11_vit_ent_0.4_pc_8","sujet11",29.4457076783303,"vit","ent","0.4","pc",18.8850758270742,3001,8
"sujet11_vit_ent_0.4_pe_11","sujet11",29.4457076783303,"vit","ent","0.4","pe",56.8326822270224,3000,11
"sujet11_vit_ent_0.4_pe_9","sujet11",29.4457076783303,"vit","ent","0.4","pe",37.0298530365922,3001,9
"sujet11_vit_test_0.4_pc_12","sujet11",29.4457076783303,"vit","test","0.4","pc",26.8315496172597,7501,12
"sujet11_vit_test_0.4_pc_16","sujet11",29.4457076783303,"vit","test","0.4","pc",18.6696281008438,7500,16
"sujet11_vit_test_0.4_pe_13","sujet11",29.4457076783303,"vit","test","0.4","pe",39.9308273743345,6915,13
"sujet11_vit_test_0.4_pe_17","sujet11",29.4457076783303,"vit","test","0.4","pe",31.6298719728079,7079,17
"sujet11_vit_test_0.6_pc_14","sujet11",29.4457076783303,"vit","test","0.6","pc",61.7501764498769,7500,14
"sujet11_vit_test_0.6_pc_18","sujet11",29.4457076783303,"vit","test","0.6","pc",65.6517583866652,7501,18
"sujet11_vit_test_0.6_pe_15","sujet11",29.4457076783303,"vit","test","0.6","pe",71.2056356980661,7135,15
"sujet11_vit_test_0.6_pe_19","sujet11",29.4457076783303,"vit","test","0.6","pe",84.5960767876316,7239,19
"sujet12_vit_ent_0.2_pc_1","sujet12",18.5729905170551,"vit","ent","0.2","pc",18.5421637221177,3001,1
"sujet12_vit_ent_0.2_pc_3","sujet12",18.5729905170551,"vit","ent","0.2","pc",23.5977808989129,2973,3
"sujet12_vit_ent_0.2_pe_0","sujet12",18.5729905170551,"vit","ent","0.2","pe",87.3486722528904,3001,0
"sujet12_vit_ent_0.2_pe_2","sujet12",18.5729905170551,"vit","ent","0.2","pe",26.6474180895912,3001,2
"sujet12_vit_ent_0.3_pc_5","sujet12",18.5729905170551,"vit","ent","0.3","pc",33.6108588990301,3001,5
"sujet12_vit_ent_0.3_pc_7","sujet12",18.5729905170551,"vit","ent","0.3","pc",53.8140591908513,2992,7
"sujet12_vit_ent_0.3_pe_4","sujet12",18.5729905170551,"vit","ent","0.3","pe",26.3363816585383,3001,4
"sujet12_vit_ent_0.3_pe_6","sujet12",18.5729905170551,"vit","ent","0.3","pe",40.4458240098704,3000,6
"sujet12_vit_ent_0.4_pc_11","sujet12",18.5729905170551,"vit","ent","0.4","pc",44.0166756787656,2991,11
"sujet12_vit_ent_0.4_pc_9","sujet12",18.5729905170551,"vit","ent","0.4","pc",32.3258978690114,3001,9
"sujet12_vit_ent_0.4_pe_10","sujet12",18.5729905170551,"vit","ent","0.4","pe",1737.59805017291,2997,10
"sujet12_vit_ent_0.4_pe_8","sujet12",18.5729905170551,"vit","ent","0.4","pe",38.6650593491219,3001,8
"sujet12_vit_test_0.4_pc_13","sujet12",18.5729905170551,"vit","test","0.4","pc",56.3818561863692,7056,13
"sujet12_vit_test_0.4_pc_17","sujet12",18.5729905170551,"vit","test","0.4","pc",36.5674994939582,6982,17
"sujet12_vit_test_0.4_pe_12","sujet12",18.5729905170551,"vit","test","0.4","pe",32.9351377908481,7501,12
"sujet12_vit_test_0.4_pe_16","sujet12",18.5729905170551,"vit","test","0.4","pe",53.9771713363891,7499,16
"sujet12_vit_test_0.6_pc_15","sujet12",18.5729905170551,"vit","test","0.6","pc",99.2094403572332,6810,15
"sujet12_vit_test_0.6_pc_19","sujet12",18.5729905170551,"vit","test","0.6","pc",115.68551350279,6874,19
"sujet12_vit_test_0.6_pe_14","sujet12",18.5729905170551,"vit","test","0.6","pe",127.983648973083,7500,14
"sujet12_vit_test_0.6_pe_18","sujet12",18.5729905170551,"vit","test","0.6","pe",128.266005368664,7501,18
"sujet13_pos_ent_0.2_pc_0","sujet13",22.1331039446447,"pos","ent","0.2","pc",5.86129613537502,3001,0
"sujet13_pos_ent_0.2_pc_2","sujet13",22.1331039446447,"pos","ent","0.2","pc",1.68630158129312,3001,2
"sujet13_pos_ent_0.2_pe_1","sujet13",22.1331039446447,"pos","ent","0.2","pe",4.94096977719071,3000,1
"sujet13_pos_ent_0.2_pe_3","sujet13",22.1331039446447,"pos","ent","0.2","pe",6.64486942346631,2988,3
"sujet13_pos_ent_0.3_pc_4","sujet13",22.1331039446447,"pos","ent","0.3","pc",4.77653410158575,3001,4
"sujet13_pos_ent_0.3_pc_6","sujet13",22.1331039446447,"pos","ent","0.3","pc",5.32242954756539,3000,6
"sujet13_pos_ent_0.3_pe_5","sujet13",22.1331039446447,"pos","ent","0.3","pe",17.097846332814,3001,5
"sujet13_pos_ent_0.3_pe_7","sujet13",22.1331039446447,"pos","ent","0.3","pe",7.97245685356706,2999,7
"sujet13_pos_ent_0.4_pc_10","sujet13",22.1331039446447,"pos","ent","0.4","pc",9.41243373242089,3000,10
"sujet13_pos_ent_0.4_pc_8","sujet13",22.1331039446447,"pos","ent","0.4","pc",8.05570951875034,3001,8
"sujet13_pos_ent_0.4_pe_11","sujet13",22.1331039446447,"pos","ent","0.4","pe",23.5418696832032,2999,11
"sujet13_pos_ent_0.4_pe_9","sujet13",22.1331039446447,"pos","ent","0.4","pe",26.5268425660134,3001,9
"sujet13_pos_test_0.4_pc_12","sujet13",22.1331039446447,"pos","test","0.4","pc",6.27374659210524,7501,12
"sujet13_pos_test_0.4_pc_16","sujet13",22.1331039446447,"pos","test","0.4","pc",7.41216148581725,7500,16
"sujet13_pos_test_0.4_pe_13","sujet13",22.1331039446447,"pos","test","0.4","pe",19.3074206901873,7174,13
"sujet13_pos_test_0.4_pe_17","sujet13",22.1331039446447,"pos","test","0.4","pe",23.5695901567481,7084,17
"sujet13_pos_test_0.6_pc_14","sujet13",22.1331039446447,"pos","test","0.6","pc",22.7841544747991,7501,14
"sujet13_pos_test_0.6_pc_18","sujet13",22.1331039446447,"pos","test","0.6","pc",26.1547336802502,7497,18
"sujet13_pos_test_0.6_pe_15","sujet13",22.1331039446447,"pos","test","0.6","pe",45.181348039687,6968,15
"sujet13_pos_test_0.6_pe_19","sujet13",22.1331039446447,"pos","test","0.6","pe",37.2510680135464,7103,19
"sujet14_vit_ent_0.2_pc_0","sujet14",14.075519184018,"vit","ent","0.2","pc",5.43938571812481,3001,0
"sujet14_vit_ent_0.2_pc_2","sujet14",14.075519184018,"vit","ent","0.2","pc",4.2413566533789,2998,2
"sujet14_vit_ent_0.2_pe_1","sujet14",14.075519184018,"vit","ent","0.2","pe",6.74326628874624,3000,1
"sujet14_vit_ent_0.2_pe_3","sujet14",14.075519184018,"vit","ent","0.2","pe",6.54521829848036,2997,3
"sujet14_vit_ent_0.3_pc_4","sujet14",14.075519184018,"vit","ent","0.3","pc",12.1601601799427,3000,4
"sujet14_vit_ent_0.3_pc_6","sujet14",14.075519184018,"vit","ent","0.3","pc",15.5437155625548,3001,6
"sujet14_vit_ent_0.3_pe_5","sujet14",14.075519184018,"vit","ent","0.3","pe",13.4785262538717,3000,5
"sujet14_vit_ent_0.3_pe_7","sujet14",14.075519184018,"vit","ent","0.3","pe",13.9921868657805,2998,7
"sujet14_vit_ent_0.4_pc_10","sujet14",14.075519184018,"vit","ent","0.4","pc",32.7830138953161,3001,10
"sujet14_vit_ent_0.4_pc_8","sujet14",14.075519184018,"vit","ent","0.4","pc",22.3129378678592,3001,8
"sujet14_vit_ent_0.4_pe_11","sujet14",14.075519184018,"vit","ent","0.4","pe",28.3860150544555,3000,11
"sujet14_vit_ent_0.4_pe_9","sujet14",14.075519184018,"vit","ent","0.4","pe",23.1798834864923,3001,9
"sujet14_vit_test_0.4_pc_12","sujet14",14.075519184018,"vit","test","0.4","pc",19.3921545605819,7498,12
"sujet14_vit_test_0.4_pc_16","sujet14",14.075519184018,"vit","test","0.4","pc",22.3062042368556,7499,16
"sujet14_vit_test_0.4_pe_13","sujet14",14.075519184018,"vit","test","0.4","pe",316.493112242719,7168,13
"sujet14_vit_test_0.4_pe_17","sujet14",14.075519184018,"vit","test","0.4","pe",32.8898868815084,7141,17
"sujet14_vit_test_0.6_pc_14","sujet14",14.075519184018,"vit","test","0.6","pc",70.1351902191716,7500,14
"sujet14_vit_test_0.6_pc_18","sujet14",14.075519184018,"vit","test","0.6","pc",59.5900333855691,7501,18
"sujet14_vit_test_0.6_pe_15","sujet14",14.075519184018,"vit","test","0.6","pe",74.9314916530952,7051,15
"sujet14_vit_test_0.6_pe_19","sujet14",14.075519184018,"vit","test","0.6","pe",79.3275427085265,7227,19
"sujet15_vit_ent_0.2_pc_1","sujet15",9.9628884795058,"vit","ent","0.2","pc",224.328788993287,3001,1
"sujet15_vit_ent_0.2_pc_3","sujet15",9.9628884795058,"vit","ent","0.2","pc",8.21529259417384,2998,3
"sujet15_vit_ent_0.2_pe_0","sujet15",9.9628884795058,"vit","ent","0.2","pe",105.484325788933,3001,0
"sujet15_vit_ent_0.2_pe_2","sujet15",9.9628884795058,"vit","ent","0.2","pe",28.4158285260287,2996,2
"sujet15_vit_ent_0.3_pc_5","sujet15",9.9628884795058,"vit","ent","0.3","pc",13.8615273849043,3001,5
"sujet15_vit_ent_0.3_pc_7","sujet15",9.9628884795058,"vit","ent","0.3","pc",23.410433550346,2999,7
"sujet15_vit_ent_0.3_pe_4","sujet15",9.9628884795058,"vit","ent","0.3","pe",73.7667651219966,3001,4
"sujet15_vit_ent_0.3_pe_6","sujet15",9.9628884795058,"vit","ent","0.3","pe",45.9213595193409,3000,6
"sujet15_vit_ent_0.4_pc_11","sujet15",9.9628884795058,"vit","ent","0.4","pc",32.7126814696593,2998,11
"sujet15_vit_ent_0.4_pc_9","sujet15",9.9628884795058,"vit","ent","0.4","pc",30.5080892899272,3001,9
"sujet15_vit_ent_0.4_pe_10","sujet15",9.9628884795058,"vit","ent","0.4","pe",47.1582340544864,2994,10
"sujet15_vit_ent_0.4_pe_8","sujet15",9.9628884795058,"vit","ent","0.4","pe",67.8766019273748,3001,8
"sujet15_vit_test_0.4_pc_13","sujet15",9.9628884795058,"vit","test","0.4","pc",35.1705491592478,7155,13
"sujet15_vit_test_0.4_pc_17","sujet15",9.9628884795058,"vit","test","0.4","pc",21.5564930929761,6771,17
"sujet15_vit_test_0.4_pe_12","sujet15",9.9628884795058,"vit","test","0.4","pe",130.847971291978,7501,12
"sujet15_vit_test_0.4_pe_16","sujet15",9.9628884795058,"vit","test","0.4","pe",75.6110647630036,7500,16
"sujet15_vit_test_0.6_pc_15","sujet15",9.9628884795058,"vit","test","0.6","pc",65.6623804726108,7112,15
"sujet15_vit_test_0.6_pc_19","sujet15",9.9628884795058,"vit","test","0.6","pc",59.0204046252142,7061,19
"sujet15_vit_test_0.6_pe_14","sujet15",9.9628884795058,"vit","test","0.6","pe",121.281174071716,7500,14
"sujet15_vit_test_0.6_pe_18","sujet15",9.9628884795058,"vit","test","0.6","pe",165.460186817619,7501,18
"sujet16_pos_ent_0.2_pc_1","sujet16",17.8506400969447,"pos","ent","0.2","pc",5.6622937531716,2999,1
"sujet16_pos_ent_0.2_pc_3","sujet16",17.8506400969447,"pos","ent","0.2","pc",3.02119706661745,2992,3
"sujet16_pos_ent_0.2_pe_0","sujet16",17.8506400969447,"pos","ent","0.2","pe",435.880738757313,3001,0
"sujet16_pos_ent_0.2_pe_2","sujet16",17.8506400969447,"pos","ent","0.2","pe",4.84244860138939,2997,2
"sujet16_pos_ent_0.3_pc_5","sujet16",17.8506400969447,"pos","ent","0.3","pc",5.16635661645011,3001,5
"sujet16_pos_ent_0.3_pc_7","sujet16",17.8506400969447,"pos","ent","0.3","pc",5.95614222239802,2999,7
"sujet16_pos_ent_0.3_pe_4","sujet16",17.8506400969447,"pos","ent","0.3","pe",18.4084674529173,3001,4
"sujet16_pos_ent_0.3_pe_6","sujet16",17.8506400969447,"pos","ent","0.3","pe",14.231661040044,3001,6
"sujet16_pos_ent_0.4_pc_11","sujet16",17.8506400969447,"pos","ent","0.4","pc",13.1047139955413,2994,11
"sujet16_pos_ent_0.4_pc_9","sujet16",17.8506400969447,"pos","ent","0.4","pc",7.82250905663438,3001,9
"sujet16_pos_ent_0.4_pe_10","sujet16",17.8506400969447,"pos","ent","0.4","pe",19.6620884095399,3001,10
"sujet16_pos_ent_0.4_pe_8","sujet16",17.8506400969447,"pos","ent","0.4","pe",15.2710750492849,3001,8
"sujet16_pos_test_0.4_pc_13","sujet16",17.8506400969447,"pos","test","0.4","pc",6.43878763499761,6957,13
"sujet16_pos_test_0.4_pc_17","sujet16",17.8506400969447,"pos","test","0.4","pc",8.18397490833484,7269,17
"sujet16_pos_test_0.4_pe_12","sujet16",17.8506400969447,"pos","test","0.4","pe",23.5425610189095,7501,12
"sujet16_pos_test_0.4_pe_16","sujet16",17.8506400969447,"pos","test","0.4","pe",22.8343235665421,7501,16
"sujet16_pos_test_0.6_pc_15","sujet16",17.8506400969447,"pos","test","0.6","pc",19.4213353360316,6781,15
"sujet16_pos_test_0.6_pc_19","sujet16",17.8506400969447,"pos","test","0.6","pc",17.539932694947,7118,19
"sujet16_pos_test_0.6_pe_14","sujet16",17.8506400969447,"pos","test","0.6","pe",46.8951759333501,7500,14
"sujet16_pos_test_0.6_pe_18","sujet16",17.8506400969447,"pos","test","0.6","pe",37.07184455294,7501,18
"sujet17_vit_ent_0.2_pc_0","sujet17",29.0145682637362,"vit","ent","0.2","pc",14.5017383795279,3001,0
"sujet17_vit_ent_0.2_pc_2","sujet17",29.0145682637362,"vit","ent","0.2","pc",7.07841441199786,2999,2
"sujet17_vit_ent_0.2_pe_1","sujet17",29.0145682637362,"vit","ent","0.2","pe",18.9474038509952,3000,1
"sujet17_vit_ent_0.2_pe_3","sujet17",29.0145682637362,"vit","ent","0.2","pe",13.1383644934655,2997,3
"sujet17_vit_ent_0.3_pc_4","sujet17",29.0145682637362,"vit","ent","0.3","pc",11.7799022609668,3001,4
"sujet17_vit_ent_0.3_pc_6","sujet17",29.0145682637362,"vit","ent","0.3","pc",16.3510774605683,2999,6
"sujet17_vit_ent_0.3_pe_5","sujet17",29.0145682637362,"vit","ent","0.3","pe",47.5385459414482,3000,5
"sujet17_vit_ent_0.3_pe_7","sujet17",29.0145682637362,"vit","ent","0.3","pe",44.8012602942898,2781,7
"sujet17_vit_ent_0.4_pc_10","sujet17",29.0145682637362,"vit","ent","0.4","pc",24.4437358173568,3000,10
"sujet17_vit_ent_0.4_pc_8","sujet17",29.0145682637362,"vit","ent","0.4","pc",19.117236404943,3001,8
"sujet17_vit_ent_0.4_pe_11","sujet17",29.0145682637362,"vit","ent","0.4","pe",60.55381011503,2992,11
"sujet17_vit_ent_0.4_pe_9","sujet17",29.0145682637362,"vit","ent","0.4","pe",45.7567080227182,3001,9
"sujet17_vit_test_0.4_pc_12","sujet17",29.0145682637362,"vit","test","0.4","pc",14.6605936116172,7501,12
"sujet17_vit_test_0.4_pc_16","sujet17",29.0145682637362,"vit","test","0.4","pc",16.6839896391721,7501,16
"sujet17_vit_test_0.4_pe_13","sujet17",29.0145682637362,"vit","test","0.4","pe",73.6430384043582,7080,13
"sujet17_vit_test_0.4_pe_17","sujet17",29.0145682637362,"vit","test","0.4","pe",57.4400565724217,6904,17
"sujet17_vit_test_0.6_pc_14","sujet17",29.0145682637362,"vit","test","0.6","pc",42.0932579785113,7498,14
"sujet17_vit_test_0.6_pc_18","sujet17",29.0145682637362,"vit","test","0.6","pc",51.5095383135987,7498,18
"sujet17_vit_test_0.6_pe_15","sujet17",29.0145682637362,"vit","test","0.6","pe",278.982518974568,6637,15
"sujet17_vit_test_0.6_pe_19","sujet17",29.0145682637362,"vit","test","0.6","pe",118.119086624859,6620,19
"sujet18_vit_ent_0.2_pc_1","sujet18",28.4493815963601,"vit","ent","0.2","pc",24.4429123859424,3001,1
"sujet18_vit_ent_0.2_pc_3","sujet18",28.4493815963601,"vit","ent","0.2","pc",35.7769051859886,2997,3
"sujet18_vit_ent_0.2_pe_0","sujet18",28.4493815963601,"vit","ent","0.2","pe",37.2325282502288,3001,0
"sujet18_vit_ent_0.2_pe_2","sujet18",28.4493815963601,"vit","ent","0.2","pe",38.07835573538,3001,2
"sujet18_vit_ent_0.3_pc_5","sujet18",28.4493815963601,"vit","ent","0.3","pc",12.3053495385103,3000,5
"sujet18_vit_ent_0.3_pc_7","sujet18",28.4493815963601,"vit","ent","0.3","pc",23.9649074877038,2998,7
"sujet18_vit_ent_0.3_pe_4","sujet18",28.4493815963601,"vit","ent","0.3","pe",61.3211090544493,3001,4
"sujet18_vit_ent_0.3_pe_6","sujet18",28.4493815963601,"vit","ent","0.3","pe",70.7237044981884,3000,6
"sujet18_vit_ent_0.4_pc_11","sujet18",28.4493815963601,"vit","ent","0.4","pc",42.4863777318515,2995,11
"sujet18_vit_ent_0.4_pc_9","sujet18",28.4493815963601,"vit","ent","0.4","pc",74.433820900981,3001,9
"sujet18_vit_ent_0.4_pe_10","sujet18",28.4493815963601,"vit","ent","0.4","pe",92.4651299012697,3000,10
"sujet18_vit_ent_0.4_pe_8","sujet18",28.4493815963601,"vit","ent","0.4","pe",78.7115476479069,3001,8
"sujet18_vit_test_0.4_pc_13","sujet18",28.4493815963601,"vit","test","0.4","pc",53.2282021445378,7182,13
"sujet18_vit_test_0.4_pc_17","sujet18",28.4493815963601,"vit","test","0.4","pc",24.6146771422035,7029,17
"sujet18_vit_test_0.4_pe_12","sujet18",28.4493815963601,"vit","test","0.4","pe",37.1743248209133,7501,12
"sujet18_vit_test_0.4_pe_16","sujet18",28.4493815963601,"vit","test","0.4","pe",28.5628573500147,7501,16
"sujet18_vit_test_0.6_pc_15","sujet18",28.4493815963601,"vit","test","0.6","pc",65.0635946490306,6701,15
"sujet18_vit_test_0.6_pc_19","sujet18",28.4493815963601,"vit","test","0.6","pc",49.1687349272509,6935,19
"sujet18_vit_test_0.6_pe_14","sujet18",28.4493815963601,"vit","test","0.6","pe",81.5851256583592,7500,14
"sujet18_vit_test_0.6_pe_18","sujet18",28.4493815963601,"vit","test","0.6","pe",78.8382083939289,7501,18
"sujet19_vit_ent_0.2_pc_0","sujet19",20.3870216067053,"vit","ent","0.2","pc",8.2667749643513,3001,0
"sujet19_vit_ent_0.2_pc_2","sujet19",20.3870216067053,"vit","ent","0.2","pc",6.57768124354859,3000,2
"sujet19_vit_ent_0.2_pe_1","sujet19",20.3870216067053,"vit","ent","0.2","pe",194.458226214919,3001,1
"sujet19_vit_ent_0.2_pe_3","sujet19",20.3870216067053,"vit","ent","0.2","pe",9.91565387910387,2998,3
"sujet19_vit_ent_0.3_pc_4","sujet19",20.3870216067053,"vit","ent","0.3","pc",11.6616054216315,3001,4
"sujet19_vit_ent_0.3_pc_6","sujet19",20.3870216067053,"vit","ent","0.3","pc",14.9464694301586,3000,6
"sujet19_vit_ent_0.3_pe_5","sujet19",20.3870216067053,"vit","ent","0.3","pe",86.4968129002829,3001,5
"sujet19_vit_ent_0.3_pe_7","sujet19",20.3870216067053,"vit","ent","0.3","pe",44.5305663274182,2995,7
"sujet19_vit_ent_0.4_pc_10","sujet19",20.3870216067053,"vit","ent","0.4","pc",30.454667549865,3001,10
"sujet19_vit_ent_0.4_pc_8","sujet19",20.3870216067053,"vit","ent","0.4","pc",24.2617158710065,3001,8
"sujet19_vit_ent_0.4_pe_11","sujet19",20.3870216067053,"vit","ent","0.4","pe",90.4407361948235,3000,11
"sujet19_vit_ent_0.4_pe_9","sujet19",20.3870216067053,"vit","ent","0.4","pe",88.9880898231285,3001,9
"sujet19_vit_test_0.4_pc_12","sujet19",20.3870216067053,"vit","test","0.4","pc",24.8215021188992,7501,12
"sujet19_vit_test_0.4_pc_16","sujet19",20.3870216067053,"vit","test","0.4","pc",26.2910229343072,7501,16
"sujet19_vit_test_0.4_pe_13","sujet19",20.3870216067053,"vit","test","0.4","pe",64.7077493104038,7121,13
"sujet19_vit_test_0.4_pe_17","sujet19",20.3870216067053,"vit","test","0.4","pe",59.0155644864215,7114,17
"sujet19_vit_test_0.6_pc_14","sujet19",20.3870216067053,"vit","test","0.6","pc",85.4722528491231,7501,14
"sujet19_vit_test_0.6_pc_18","sujet19",20.3870216067053,"vit","test","0.6","pc",76.3071076961139,7501,18
"sujet19_vit_test_0.6_pe_15","sujet19",20.3870216067053,"vit","test","0.6","pe",170.880374942569,6353,15
"sujet19_vit_test_0.6_pe_19","sujet19",20.3870216067053,"vit","test","0.6","pe",155.509946492971,7132,19
"sujet2_pos_ent_0.2_pc_1","sujet2",21.2713270002998,"pos","ent","0.2","pc",5.05989876754552,3000,1
"sujet2_pos_ent_0.2_pc_3","sujet2",21.2713270002998,"pos","ent","0.2","pc",4.11306895785045,2998,3
"sujet2_pos_ent_0.2_pe_0","sujet2",21.2713270002998,"pos","ent","0.2","pe",370.262822373226,3001,0
"sujet2_pos_ent_0.2_pe_2","sujet2",21.2713270002998,"pos","ent","0.2","pe",7.75252117954712,3001,2
"sujet2_pos_ent_0.3_pc_5","sujet2",21.2713270002998,"pos","ent","0.3","pc",4.9371221890572,3001,5
"sujet2_pos_ent_0.3_pc_7","sujet2",21.2713270002998,"pos","ent","0.3","pc",3.88364494002137,2998,7
"sujet2_pos_ent_0.3_pe_4","sujet2",21.2713270002998,"pos","ent","0.3","pe",14.1048920444877,3001,4
"sujet2_pos_ent_0.3_pe_6","sujet2",21.2713270002998,"pos","ent","0.3","pe",12.4859601931091,2959,6
"sujet2_pos_ent_0.4_pc_11","sujet2",21.2713270002998,"pos","ent","0.4","pc",9.75160949612961,2998,11
"sujet2_pos_ent_0.4_pc_9","sujet2",21.2713270002998,"pos","ent","0.4","pc",8.43825263524034,3000,9
"sujet2_pos_ent_0.4_pe_10","sujet2",21.2713270002998,"pos","ent","0.4","pe",32.1786013787941,3001,10
"sujet2_pos_ent_0.4_pe_8","sujet2",21.2713270002998,"pos","ent","0.4","pe",27.6197573721202,3001,8
"sujet2_pos_test_0.4_pc_13","sujet2",21.2713270002998,"pos","test","0.4","pc",7.75057211276152,7278,13
"sujet2_pos_test_0.4_pc_17","sujet2",21.2713270002998,"pos","test","0.4","pc",6.8514994763007,7202,17
"sujet2_pos_test_0.4_pe_12","sujet2",21.2713270002998,"pos","test","0.4","pe",26.5831183223541,7501,12
"sujet2_pos_test_0.4_pe_16","sujet2",21.2713270002998,"pos","test","0.4","pe",33.1534219051633,7501,16
"sujet2_pos_test_0.6_pc_15","sujet2",21.2713270002998,"pos","test","0.6","pc",24.2288680981195,7227,15
"sujet2_pos_test_0.6_pc_19","sujet2",21.2713270002998,"pos","test","0.6","pc",19.3011498562424,7252,19
"sujet2_pos_test_0.6_pe_14","sujet2",21.2713270002998,"pos","test","0.6","pe",46.4026182495664,7501,14
"sujet2_pos_test_0.6_pe_18","sujet2",21.2713270002998,"pos","test","0.6","pe",47.4298572153328,7501,18
"sujet20_pos_ent_0.2_pc_0","sujet20",40.1851785855399,"pos","ent","0.2","pc",21.5398402068113,3001,0
"sujet20_pos_ent_0.2_pc_2","sujet20",40.1851785855399,"pos","ent","0.2","pc",9.12522901685091,2997,2
"sujet20_pos_ent_0.2_pe_1","sujet20",40.1851785855399,"pos","ent","0.2","pe",13.7159087528923,3001,1
"sujet20_pos_ent_0.2_pe_3","sujet20",40.1851785855399,"pos","ent","0.2","pe",8.03291040603286,2982,3
"sujet20_pos_ent_0.3_pc_4","sujet20",40.1851785855399,"pos","ent","0.3","pc",6.10512724648038,3001,4
"sujet20_pos_ent_0.3_pc_6","sujet20",40.1851785855399,"pos","ent","0.3","pc",8.85431180751995,3001,6
"sujet20_pos_ent_0.3_pe_5","sujet20",40.1851785855399,"pos","ent","0.3","pe",14.4760760271092,3001,5
"sujet20_pos_ent_0.3_pe_7","sujet20",40.1851785855399,"pos","ent","0.3","pe",11.6791591224524,2998,7
"sujet20_pos_ent_0.4_pc_10","sujet20",40.1851785855399,"pos","ent","0.4","pc",17.7024040985926,2999,10
"sujet20_pos_ent_0.4_pc_8","sujet20",40.1851785855399,"pos","ent","0.4","pc",11.9462898037953,3001,8
"sujet20_pos_ent_0.4_pe_11","sujet20",40.1851785855399,"pos","ent","0.4","pe",21.1212212402727,2998,11
"sujet20_pos_ent_0.4_pe_9","sujet20",40.1851785855399,"pos","ent","0.4","pe",17.7780393481638,3001,9
"sujet20_pos_test_0.4_pc_12","sujet20",40.1851785855399,"pos","test","0.4","pc",15.3312211959415,7500,12
"sujet20_pos_test_0.4_pc_16","sujet20",40.1851785855399,"pos","test","0.4","pc",15.5773901641223,7501,16
"sujet20_pos_test_0.4_pe_13","sujet20",40.1851785855399,"pos","test","0.4","pe",19.9103928216745,7019,13
"sujet20_pos_test_0.4_pe_17","sujet20",40.1851785855399,"pos","test","0.4","pe",22.5701832323226,7111,17
"sujet20_pos_test_0.6_pc_14","sujet20",40.1851785855399,"pos","test","0.6","pc",28.6498559706383,7500,14
"sujet20_pos_test_0.6_pc_18","sujet20",40.1851785855399,"pos","test","0.6","pc",25.8048559108784,7501,18
"sujet20_pos_test_0.6_pe_15","sujet20",40.1851785855399,"pos","test","0.6","pe",45.9388900725081,7069,15
"sujet20_pos_test_0.6_pe_19","sujet20",40.1851785855399,"pos","test","0.6","pe",64.3443803325354,6971,19
"sujet21_pos_ent_0.2_pc_1","sujet21",14.985992515609,"pos","ent","0.2","pc",3.16182105017311,3001,1
"sujet21_pos_ent_0.2_pc_3","sujet21",14.985992515609,"pos","ent","0.2","pc",2.86554270138653,3000,3
"sujet21_pos_ent_0.2_pe_0","sujet21",14.985992515609,"pos","ent","0.2","pe",70.8770703577156,3001,0
"sujet21_pos_ent_0.2_pe_2","sujet21",14.985992515609,"pos","ent","0.2","pe",6.37909918407423,2998,2
"sujet21_pos_ent_0.3_pc_5","sujet21",14.985992515609,"pos","ent","0.3","pc",3.50882191939468,3001,5
"sujet21_pos_ent_0.3_pc_7","sujet21",14.985992515609,"pos","ent","0.3","pc",2.97273108688616,3001,7
"sujet21_pos_ent_0.3_pe_4","sujet21",14.985992515609,"pos","ent","0.3","pe",7.35576094111311,3001,4
"sujet21_pos_ent_0.3_pe_6","sujet21",14.985992515609,"pos","ent","0.3","pe",7.33963811942054,3000,6
"sujet21_pos_ent_0.4_pc_11","sujet21",14.985992515609,"pos","ent","0.4","pc",5.26054005860746,3000,11
"sujet21_pos_ent_0.4_pc_9","sujet21",14.985992515609,"pos","ent","0.4","pc",6.47375317894647,3001,9
"sujet21_pos_ent_0.4_pe_10","sujet21",14.985992515609,"pos","ent","0.4","pe",15.6207059017739,3001,10
"sujet21_pos_ent_0.4_pe_8","sujet21",14.985992515609,"pos","ent","0.4","pe",15.4418685353173,3001,8
"sujet21_pos_test_0.4_pc_13","sujet21",14.985992515609,"pos","test","0.4","pc",5.18434238029132,7057,13
"sujet21_pos_test_0.4_pc_17","sujet21",14.985992515609,"pos","test","0.4","pc",5.29451287783757,7193,17
"sujet21_pos_test_0.4_pe_12","sujet21",14.985992515609,"pos","test","0.4","pe",11.5138570726539,7501,12
"sujet21_pos_test_0.4_pe_16","sujet21",14.985992515609,"pos","test","0.4","pe",11.8651675121239,7501,16
"sujet21_pos_test_0.6_pc_15","sujet21",14.985992515609,"pos","test","0.6","pc",16.8389586535088,7240,15
"sujet21_pos_test_0.6_pc_19","sujet21",14.985992515609,"pos","test","0.6","pc",15.6907053755272,7163,19
"sujet21_pos_test_0.6_pe_14","sujet21",14.985992515609,"pos","test","0.6","pe",28.7225200588874,7501,14
"sujet21_pos_test_0.6_pe_18","sujet21",14.985992515609,"pos","test","0.6","pe",36.6614575068412,7501,18
"sujet22_pos_ent_0.2_pc_1","sujet22",22.8168865325502,"pos","ent","0.2","pc",6.44011367755446,3001,1
"sujet22_pos_ent_0.2_pc_3","sujet22",22.8168865325502,"pos","ent","0.2","pc",15.178145344515,2999,3
"sujet22_pos_ent_0.2_pe_0","sujet22",22.8168865325502,"pos","ent","0.2","pe",94.259574318099,3001,0
"sujet22_pos_ent_0.2_pe_2","sujet22",22.8168865325502,"pos","ent","0.2","pe",15.0002647405443,2996,2
"sujet22_pos_ent_0.3_pc_5","sujet22",22.8168865325502,"pos","ent","0.3","pc",90.2003323716961,3001,5
"sujet22_pos_ent_0.3_pc_7","sujet22",22.8168865325502,"pos","ent","0.3","pc",4.45695077004337,2993,7
"sujet22_pos_ent_0.3_pe_4","sujet22",22.8168865325502,"pos","ent","0.3","pe",120.217662454333,3001,4
"sujet22_pos_ent_0.3_pe_6","sujet22",22.8168865325502,"pos","ent","0.3","pe",32.9062052046859,2997,6
"sujet22_pos_ent_0.4_pc_11","sujet22",22.8168865325502,"pos","ent","0.4","pc",12.4435089490341,2999,11
"sujet22_pos_ent_0.4_pc_9","sujet22",22.8168865325502,"pos","ent","0.4","pc",6.64297056453286,3001,9
"sujet22_pos_ent_0.4_pe_10","sujet22",22.8168865325502,"pos","ent","0.4","pe",33.2454272205342,3000,10
"sujet22_pos_ent_0.4_pe_8","sujet22",22.8168865325502,"pos","ent","0.4","pe",36.7236133203264,3001,8
"sujet22_pos_test_0.4_pc_13","sujet22",22.8168865325502,"pos","test","0.4","pc",6.13725385152939,7095,13
"sujet22_pos_test_0.4_pc_17","sujet22",22.8168865325502,"pos","test","0.4","pc",6.86947834690445,7216,17
"sujet22_pos_test_0.4_pe_12","sujet22",22.8168865325502,"pos","test","0.4","pe",29.1085705207971,7500,12
"sujet22_pos_test_0.4_pe_16","sujet22",22.8168865325502,"pos","test","0.4","pe",31.4878225677244,7501,16
"sujet22_pos_test_0.6_pc_15","sujet22",22.8168865325502,"pos","test","0.6","pc",18.2614647803611,7237,15
"sujet22_pos_test_0.6_pc_19","sujet22",22.8168865325502,"pos","test","0.6","pc",18.2423595908093,7106,19
"sujet22_pos_test_0.6_pe_14","sujet22",22.8168865325502,"pos","test","0.6","pe",57.7866210819053,7501,14
"sujet22_pos_test_0.6_pe_18","sujet22",22.8168865325502,"pos","test","0.6","pe",90.3898667246575,7500,18
"sujet3_pos_ent_0.2_pc_0","sujet3",17.8210106641763,"pos","ent","0.2","pc",6.69389997730975,3001,0
"sujet3_pos_ent_0.2_pc_2","sujet3",17.8210106641763,"pos","ent","0.2","pc",3.41502004737724,3000,2
"sujet3_pos_ent_0.2_pe_1","sujet3",17.8210106641763,"pos","ent","0.2","pe",6.73889140174713,3001,1
"sujet3_pos_ent_0.2_pe_3","sujet3",17.8210106641763,"pos","ent","0.2","pe",6.04217663049476,2991,3
"sujet3_pos_ent_0.3_pc_4","sujet3",17.8210106641763,"pos","ent","0.3","pc",2.90242788466729,3001,4
"sujet3_pos_ent_0.3_pc_6","sujet3",17.8210106641763,"pos","ent","0.3","pc",3.45143626160891,3001,6
"sujet3_pos_ent_0.3_pe_5","sujet3",17.8210106641763,"pos","ent","0.3","pe",12.416898336226,3001,5
"sujet3_pos_ent_0.3_pe_7","sujet3",17.8210106641763,"pos","ent","0.3","pe",11.744584994896,2999,7
"sujet3_pos_ent_0.4_pc_10","sujet3",17.8210106641763,"pos","ent","0.4","pc",6.19762968598632,3000,10
"sujet3_pos_ent_0.4_pc_8","sujet3",17.8210106641763,"pos","ent","0.4","pc",9.34723949473816,3001,8
"sujet3_pos_ent_0.4_pe_11","sujet3",17.8210106641763,"pos","ent","0.4","pe",16.0646373303303,2999,11
"sujet3_pos_ent_0.4_pe_9","sujet3",17.8210106641763,"pos","ent","0.4","pe",15.735202853497,3001,9
"sujet3_pos_test_0.4_pc_12","sujet3",17.8210106641763,"pos","test","0.4","pc",8.18151316459605,7501,12
"sujet3_pos_test_0.4_pc_16","sujet3",17.8210106641763,"pos","test","0.4","pc",7.44336582254394,7500,16
"sujet3_pos_test_0.4_pe_13","sujet3",17.8210106641763,"pos","test","0.4","pe",173.98072909953,6759,13
"sujet3_pos_test_0.4_pe_17","sujet3",17.8210106641763,"pos","test","0.4","pe",22.7233768756173,7138,17
"sujet3_pos_test_0.6_pc_14","sujet3",17.8210106641763,"pos","test","0.6","pc",22.0051984926829,7501,14
"sujet3_pos_test_0.6_pc_18","sujet3",17.8210106641763,"pos","test","0.6","pc",22.1994121407676,7486,18
"sujet3_pos_test_0.6_pe_15","sujet3",17.8210106641763,"pos","test","0.6","pe",41.023518943094,7000,15
"sujet3_pos_test_0.6_pe_19","sujet3",17.8210106641763,"pos","test","0.6","pe",41.1472709957957,6909,19
"sujet4_pos_ent_0.2_pc_1","sujet4",24.2017554979122,"pos","ent","0.2","pc",3.08331579174118,3001,1
"sujet4_pos_ent_0.2_pc_3","sujet4",24.2017554979122,"pos","ent","0.2","pc",1.73460817347781,3000,3
"sujet4_pos_ent_0.2_pe_0","sujet4",24.2017554979122,"pos","ent","0.2","pe",4.88813925739142,3001,0
"sujet4_pos_ent_0.2_pe_2","sujet4",24.2017554979122,"pos","ent","0.2","pe",3.52560328118791,3001,2
"sujet4_pos_ent_0.3_pc_5","sujet4",24.2017554979122,"pos","ent","0.3","pc",2.26220543952237,3001,5
"sujet4_pos_ent_0.3_pc_7","sujet4",24.2017554979122,"pos","ent","0.3","pc",3.57859865702303,2999,7
"sujet4_pos_ent_0.3_pe_4","sujet4",24.2017554979122,"pos","ent","0.3","pe",8.56528790967763,3001,4
"sujet4_pos_ent_0.3_pe_6","sujet4",24.2017554979122,"pos","ent","0.3","pe",7.37058800223379,3001,6
"sujet4_pos_ent_0.4_pc_11","sujet4",24.2017554979122,"pos","ent","0.4","pc",3.78943793130634,2998,11
"sujet4_pos_ent_0.4_pc_9","sujet4",24.2017554979122,"pos","ent","0.4","pc",4.23018373605367,3001,9
"sujet4_pos_ent_0.4_pe_10","sujet4",24.2017554979122,"pos","ent","0.4","pe",11.5279879659671,3001,10
"sujet4_pos_ent_0.4_pe_8","sujet4",24.2017554979122,"pos","ent","0.4","pe",9.53706156314684,3001,8
"sujet4_pos_test_0.4_pc_13","sujet4",24.2017554979122,"pos","test","0.4","pc",3.70250046208183,7062,13
"sujet4_pos_test_0.4_pc_17","sujet4",24.2017554979122,"pos","test","0.4","pc",3.66008432450268,7202,17
"sujet4_pos_test_0.4_pe_12","sujet4",24.2017554979122,"pos","test","0.4","pe",9.37576950000632,7501,12
"sujet4_pos_test_0.4_pe_16","sujet4",24.2017554979122,"pos","test","0.4","pe",11.0452453561758,7501,16
"sujet4_pos_test_0.6_pc_15","sujet4",24.2017554979122,"pos","test","0.6","pc",10.7343467186263,7252,15
"sujet4_pos_test_0.6_pc_19","sujet4",24.2017554979122,"pos","test","0.6","pc",12.734192993799,7202,19
"sujet4_pos_test_0.6_pe_14","sujet4",24.2017554979122,"pos","test","0.6","pe",28.2029597973807,7501,14
"sujet4_pos_test_0.6_pe_18","sujet4",24.2017554979122,"pos","test","0.6","pe",25.4969162516468,7500,18
"sujet5_pos_ent_0.2_pc_0","sujet5",19.0838160934373,"pos","ent","0.2","pc",11.3034066411681,3001,0
"sujet5_pos_ent_0.2_pc_2","sujet5",19.0838160934373,"pos","ent","0.2","pc",2.17779829226379,3000,2
"sujet5_pos_ent_0.2_pe_1","sujet5",19.0838160934373,"pos","ent","0.2","pe",11.4970143800833,3001,1
"sujet5_pos_ent_0.2_pe_3","sujet5",19.0838160934373,"pos","ent","0.2","pe",7.2053210867523,2990,3
"sujet5_pos_ent_0.3_pc_4","sujet5",19.0838160934373,"pos","ent","0.3","pc",3.35370289972735,3001,4
"sujet5_pos_ent_0.3_pc_6","sujet5",19.0838160934373,"pos","ent","0.3","pc",2.92416181295552,3000,6
"sujet5_pos_ent_0.3_pe_5","sujet5",19.0838160934373,"pos","ent","0.3","pe",7.46133220106963,3001,5
"sujet5_pos_ent_0.3_pe_7","sujet5",19.0838160934373,"pos","ent","0.3","pe",10.254622741222,2997,7
"sujet5_pos_ent_0.4_pc_10","sujet5",19.0838160934373,"pos","ent","0.4","pc",6.14671165243867,3000,10
"sujet5_pos_ent_0.4_pc_8","sujet5",19.0838160934373,"pos","ent","0.4","pc",5.63166014902236,3001,8
"sujet5_pos_ent_0.4_pe_11","sujet5",19.0838160934373,"pos","ent","0.4","pe",22.8330182035345,2996,11
"sujet5_pos_ent_0.4_pe_9","sujet5",19.0838160934373,"pos","ent","0.4","pe",25.9287963240603,3001,9
"sujet5_pos_test_0.4_pc_12","sujet5",19.0838160934373,"pos","test","0.4","pc",5.02024360873714,7501,12
"sujet5_pos_test_0.4_pc_16","sujet5",19.0838160934373,"pos","test","0.4","pc",5.08345047228329,7500,16
"sujet5_pos_test_0.4_pe_13","sujet5",19.0838160934373,"pos","test","0.4","pe",28.051389535365,6924,13
"sujet5_pos_test_0.4_pe_17","sujet5",19.0838160934373,"pos","test","0.4","pe",32.1303155746069,6468,17
"sujet5_pos_test_0.6_pc_14","sujet5",19.0838160934373,"pos","test","0.6","pc",16.4794513645966,7501,14
"sujet5_pos_test_0.6_pc_18","sujet5",19.0838160934373,"pos","test","0.6","pc",12.0003050796025,7499,18
"sujet5_pos_test_0.6_pe_15","sujet5",19.0838160934373,"pos","test","0.6","pe",61.091261222286,6726,15
"sujet5_pos_test_0.6_pe_19","sujet5",19.0838160934373,"pos","test","0.6","pe",55.5811993136634,6702,19
"sujet6_pos_ent_0.2_pc_1","sujet6",20.8767944975448,"pos","ent","0.2","pc",5.04178459000738,3001,1
"sujet6_pos_ent_0.2_pc_3","sujet6",20.8767944975448,"pos","ent","0.2","pc",1.73989854621833,3001,3
"sujet6_pos_ent_0.2_pe_0","sujet6",20.8767944975448,"pos","ent","0.2","pe",67.814243684478,3001,0
"sujet6_pos_ent_0.2_pe_2","sujet6",20.8767944975448,"pos","ent","0.2","pe",4.26427298924539,3001,2
"sujet6_pos_ent_0.3_pc_4","sujet6",20.8767944975448,"pos","ent","0.3","pc",4.11225127198291,3001,4
"sujet6_pos_ent_0.3_pc_6","sujet6",20.8767944975448,"pos","ent","0.3","pc",3.20939949180411,3001,6
"sujet6_pos_ent_0.3_pe_5","sujet6",20.8767944975448,"pos","ent","0.3","pe",14.2381100707267,3001,5
"sujet6_pos_ent_0.3_pe_7","sujet6",20.8767944975448,"pos","ent","0.3","pe",10.3762501186662,2994,7
"sujet6_pos_ent_0.4_pc_11","sujet6",20.8767944975448,"pos","ent","0.4","pc",6.91856387442942,3001,11
"sujet6_pos_ent_0.4_pc_9","sujet6",20.8767944975448,"pos","ent","0.4","pc",10.1807838305902,3001,9
"sujet6_pos_ent_0.4_pe_10","sujet6",20.8767944975448,"pos","ent","0.4","pe",15.794663965872,3001,10
"sujet6_pos_ent_0.4_pe_8","sujet6",20.8767944975448,"pos","ent","0.4","pe",26.4111819731162,3001,8
"sujet6_pos_test_0.4_pc_13","sujet6",20.8767944975448,"pos","test","0.4","pc",7.24916531830658,6988,13
"sujet6_pos_test_0.4_pc_17","sujet6",20.8767944975448,"pos","test","0.4","pc",5.19049451353648,6919,17
"sujet6_pos_test_0.4_pe_12","sujet6",20.8767944975448,"pos","test","0.4","pe",67.8976624070086,7501,12
"sujet6_pos_test_0.4_pe_16","sujet6",20.8767944975448,"pos","test","0.4","pe",35.0505469894812,7501,16
"sujet6_pos_test_0.6_pc_15","sujet6",20.8767944975448,"pos","test","0.6","pc",46.7005708926922,7041,15
"sujet6_pos_test_0.6_pc_19","sujet6",20.8767944975448,"pos","test","0.6","pc",16.3387330540568,7144,19
"sujet6_pos_test_0.6_pe_14","sujet6",20.8767944975448,"pos","test","0.6","pe",74.6780671377509,7498,14
"sujet6_pos_test_0.6_pe_18","sujet6",20.8767944975448,"pos","test","0.6","pe",66.4807142357008,7466,18
"sujet7_vit_ent_0.2_pc_0","sujet7",13.6019896523086,"vit","ent","0.2","pc",14.6548169907073,3001,0
"sujet7_vit_ent_0.2_pc_2","sujet7",13.6019896523086,"vit","ent","0.2","pc",8.41283120748089,3000,2
"sujet7_vit_ent_0.2_pe_1","sujet7",13.6019896523086,"vit","ent","0.2","pe",11.4431412866917,3001,1
"sujet7_vit_ent_0.2_pe_3","sujet7",13.6019896523086,"vit","ent","0.2","pe",9.2610278486454,2999,3
"sujet7_vit_ent_0.3_pc_4","sujet7",13.6019896523086,"vit","ent","0.3","pc",15.3310757678452,3001,4
"sujet7_vit_ent_0.3_pc_6","sujet7",13.6019896523086,"vit","ent","0.3","pc",19.6917034628906,2999,6
"sujet7_vit_ent_0.3_pe_5","sujet7",13.6019896523086,"vit","ent","0.3","pe",16.1836401138736,3001,5
"sujet7_vit_ent_0.3_pe_7","sujet7",13.6019896523086,"vit","ent","0.3","pe",14.1775921884001,2996,7
"sujet7_vit_ent_0.4_pc_10","sujet7",13.6019896523086,"vit","ent","0.4","pc",40.7353947482958,3001,10
"sujet7_vit_ent_0.4_pc_8","sujet7",13.6019896523086,"vit","ent","0.4","pc",28.6792795160656,3001,8
"sujet7_vit_ent_0.4_pe_11","sujet7",13.6019896523086,"vit","ent","0.4","pe",31.7145328650436,2999,11
"sujet7_vit_ent_0.4_pe_9","sujet7",13.6019896523086,"vit","ent","0.4","pe",52.3353131913488,3001,9
"sujet7_vit_test_0.4_pc_12","sujet7",13.6019896523086,"vit","test","0.4","pc",22.5311250857978,7496,12
"sujet7_vit_test_0.4_pc_16","sujet7",13.6019896523086,"vit","test","0.4","pc",33.9493495734904,7501,16
"sujet7_vit_test_0.4_pe_13","sujet7",13.6019896523086,"vit","test","0.4","pe",23.5029325585157,7172,13
"sujet7_vit_test_0.4_pe_17","sujet7",13.6019896523086,"vit","test","0.4","pe",29.8844805060941,7150,17
"sujet7_vit_test_0.6_pc_14","sujet7",13.6019896523086,"vit","test","0.6","pc",66.6388607719511,7501,14
"sujet7_vit_test_0.6_pc_18","sujet7",13.6019896523086,"vit","test","0.6","pc",80.1333653645541,7500,18
"sujet7_vit_test_0.6_pe_15","sujet7",13.6019896523086,"vit","test","0.6","pe",89.7651533613203,7066,15
"sujet7_vit_test_0.6_pe_19","sujet7",13.6019896523086,"vit","test","0.6","pe",97.3294519324835,7023,19
"sujet8_vit_ent_0.2_pc_1","sujet8",39.3934223104518,"vit","ent","0.2","pc",8.50815884837686,3001,1
"sujet8_vit_ent_0.2_pc_3","sujet8",39.3934223104518,"vit","ent","0.2","pc",2.81028781948177,2994,3
"sujet8_vit_ent_0.2_pe_0","sujet8",39.3934223104518,"vit","ent","0.2","pe",1065.27423004669,3001,0
"sujet8_vit_ent_0.2_pe_2","sujet8",39.3934223104518,"vit","ent","0.2","pe",7.63481805852749,2994,2
"sujet8_vit_ent_0.3_pc_5","sujet8",39.3934223104518,"vit","ent","0.3","pc",8.38309089044934,3001,5
"sujet8_vit_ent_0.3_pc_7","sujet8",39.3934223104518,"vit","ent","0.3","pc",10.4085554752633,2996,7
"sujet8_vit_ent_0.3_pe_4","sujet8",39.3934223104518,"vit","ent","0.3","pe",15.2953293124906,3001,4
"sujet8_vit_ent_0.3_pe_6","sujet8",39.3934223104518,"vit","ent","0.3","pe",13.0701791368109,3001,6
"sujet8_vit_ent_0.4_pc_11","sujet8",39.3934223104518,"vit","ent","0.4","pc",21.8494613084558,3000,11
"sujet8_vit_ent_0.4_pc_9","sujet8",39.3934223104518,"vit","ent","0.4","pc",16.8312642286803,3001,9
"sujet8_vit_ent_0.4_pe_10","sujet8",39.3934223104518,"vit","ent","0.4","pe",28.7332246437604,3001,10
"sujet8_vit_ent_0.4_pe_8","sujet8",39.3934223104518,"vit","ent","0.4","pe",32.6849953137369,3001,8
"sujet8_vit_test_0.4_pc_13","sujet8",39.3934223104518,"vit","test","0.4","pc",22.4305890498923,6816,13
"sujet8_vit_test_0.4_pc_17","sujet8",39.3934223104518,"vit","test","0.4","pc",18.5937935631842,7191,17
"sujet8_vit_test_0.4_pe_12","sujet8",39.3934223104518,"vit","test","0.4","pe",23.3441045213647,7499,12
"sujet8_vit_test_0.4_pe_16","sujet8",39.3934223104518,"vit","test","0.4","pe",60.5714592797614,7498,16
"sujet8_vit_test_0.6_pc_15","sujet8",39.3934223104518,"vit","test","0.6","pc",74.2325898007182,6824,15
"sujet8_vit_test_0.6_pc_19","sujet8",39.3934223104518,"vit","test","0.6","pc",52.3539738811866,6857,19
"sujet8_vit_test_0.6_pe_14","sujet8",39.3934223104518,"vit","test","0.6","pe",68.5250295565318,7500,14
"sujet8_vit_test_0.6_pe_18","sujet8",39.3934223104518,"vit","test","0.6","pe",86.159615494686,7501,18
"sujet9_vit_ent_0.2_pc_0","sujet9",26.2624561895935,"vit","ent","0.2","pc",13.084159059758,3000,0
"sujet9_vit_ent_0.2_pc_2","sujet9",26.2624561895935,"vit","ent","0.2","pc",6.40077431633924,3001,2
"sujet9_vit_ent_0.2_pe_1","sujet9",26.2624561895935,"vit","ent","0.2","pe",25.3694886841708,2999,1
"sujet9_vit_ent_0.2_pe_3","sujet9",26.2624561895935,"vit","ent","0.2","pe",25.6995928183508,2980,3
"sujet9_vit_ent_0.3_pc_4","sujet9",26.2624561895935,"vit","ent","0.3","pc",26.477263208732,3001,4
"sujet9_vit_ent_0.3_pc_6","sujet9",26.2624561895935,"vit","ent","0.3","pc",17.5542588252685,3000,6
"sujet9_vit_ent_0.3_pe_5","sujet9",26.2624561895935,"vit","ent","0.3","pe",27.6972072990713,3000,5
"sujet9_vit_ent_0.3_pe_7","sujet9",26.2624561895935,"vit","ent","0.3","pe",30.6809238200312,2997,7
"sujet9_vit_ent_0.4_pc_11","sujet9",26.2624561895935,"vit","ent","0.4","pc",33.272390958257,3000,11
"sujet9_vit_ent_0.4_pc_9","sujet9",26.2624561895935,"vit","ent","0.4","pc",34.9587867662068,3000,9
"sujet9_vit_ent_0.4_pe_10","sujet9",26.2624561895935,"vit","ent","0.4","pe",69.9487021041197,3001,10
"sujet9_vit_ent_0.4_pe_8","sujet9",26.2624561895935,"vit","ent","0.4","pe",59.02022156439,3001,8
"sujet9_vit_test_0.4_pc_12","sujet9",26.2624561895935,"vit","test","0.4","pc",22.8907570490798,7498,12
"sujet9_vit_test_0.4_pc_16","sujet9",26.2624561895935,"vit","test","0.4","pc",38.8493993608968,7499,16
"sujet9_vit_test_0.4_pe_13","sujet9",26.2624561895935,"vit","test","0.4","pe",3065.87046088368,7037,13
"sujet9_vit_test_0.4_pe_17","sujet9",26.2624561895935,"vit","test","0.4","pe",59.8738125230451,7282,17
"sujet9_vit_test_0.6_pc_14","sujet9",26.2624561895935,"vit","test","0.6","pc",78.1398099515985,7498,14
"sujet9_vit_test_0.6_pc_18","sujet9",26.2624561895935,"vit","test","0.6","pc",88.5780584242752,7499,18
"sujet9_vit_test_0.6_pe_15","sujet9",26.2624561895935,"vit","test","0.6","pe",909.323457334323,7164,15
"sujet9_vit_test_0.6_pe_19","sujet9",26.2624561895935,"vit","test","0.6","pe",378.605252510212,7238,19
